{
    "version": "0.9.2",
    "debugLevel": "0",
    "pathDownloads": "C:\\Users\\alex\\Downloads\\",
    "ytDlLoggingEnabled": true,
    "fullPathYtDl": "libs\\youtube-dl.exe",
    "argOutput": "-o",
    "argTemplateName": ".%(ext)s",
    "argFormat": "-f",
    "argFormatSelection": "bestvideo+bestaudio",
    "thumbailCacheDir": "C:\\Daten\\tmp\\cache\\",
    "ytApiKey": "",
    "youtvPostProcessingEnabled": true,
    "remoteClippyEnabled": false,
    "remoteClippyBaseURL": "http://fatseven.com:8181/youtv/queue/add/"
}